{
  "project_info": {
    "project_number": "230790886978",
    "project_id": "tucompa-73670",
    "storage_bucket": "tucompa-73670.appspot.com"
  },
  "client": [
    {
      "client_info": {
        "mobilesdk_app_id": "1:230790886978:android:d8e49c3607d7dad123dfdb",
        "android_client_info": {
          "package_name": "com.example.tucompa"
        }
      },
      "oauth_client": [
        {
          "client_id": "230790886978-eebfifmqgesua93a7duhe5vue3vptn8r.apps.googleusercontent.com",
          "client_type": 3
        }
      ],
      "api_key": [
        {
          "current_key": "AIzaSyCKs0srkRU9IMSDOdlukUJBwwVealBcjGI"
        }
      ],
      "services": {
        "appinvite_service": {
          "other_platform_oauth_client": [
            {
              "client_id": "230790886978-eebfifmqgesua93a7duhe5vue3vptn8r.apps.googleusercontent.com",
              "client_type": 3
            }
          ]
        }
      }
    }
  ],
  "configuration_version": "1"
}